<?xml version="1.0" encoding="UTF-8" standalone="no"?>
<!-- Generator: Adobe Illustrator 16.0.0, SVG Export Plug-In . SVG Version: 6.00 Build 0)  -->

<svg
   xmlns:dc="http://purl.org/dc/elements/1.1/"
   xmlns:cc="http://creativecommons.org/ns#"
   xmlns:rdf="http://www.w3.org/1999/02/22-rdf-syntax-ns#"
   xmlns:svg="http://www.w3.org/2000/svg"
   xmlns="http://www.w3.org/2000/svg"
   xmlns:sodipodi="http://sodipodi.sourceforge.net/DTD/sodipodi-0.dtd"
   xmlns:inkscape="http://www.inkscape.org/namespaces/inkscape"
   version="1.1"
   id="Ebene_1"
   x="0px"
   y="0px"
   width="16"
   height="24"
   viewBox="0 0 16 24"
   enable-background="new 0 0 16 32"
   xml:space="preserve"
   sodipodi:docname="moveOut_blue.svg"
   inkscape:version="0.92.4 (5da689c313, 2019-01-14)"><metadata
   id="metadata15"><rdf:RDF><cc:Work
       rdf:about=""><dc:format>image/svg+xml</dc:format><dc:type
         rdf:resource="http://purl.org/dc/dcmitype/StillImage" /><dc:title></dc:title></cc:Work></rdf:RDF></metadata><defs
   id="defs13" /><sodipodi:namedview
   pagecolor="#ffffff"
   bordercolor="#666666"
   borderopacity="1"
   objecttolerance="10"
   gridtolerance="10"
   guidetolerance="10"
   inkscape:pageopacity="0"
   inkscape:pageshadow="2"
   inkscape:window-width="1920"
   inkscape:window-height="1005"
   id="namedview11"
   showgrid="false"
   inkscape:zoom="20.85965"
   inkscape:cx="0.32968914"
   inkscape:cy="16"
   inkscape:window-x="-9"
   inkscape:window-y="-9"
   inkscape:window-maximized="1"
   inkscape:current-layer="Ebene_1" />
<rect
   width="16"
   height="24"
   id="rect2"
   x="0"
   y="0"
   style="fill:#94b6e0;stroke-width:0.86602539;fill-opacity:1"
   mask="none" />
<polygon
   points="1.403,13.206 8,6.85 14.597,13.206 "
   id="polygon4"
   transform="translate(0,-4)"
   style="fill:#f57a4d;fill-opacity:1" />
<rect
   x="1.403"
   y="11.445"
   width="13.193"
   height="1.11"
   id="rect6"
   style="fill:#f57a4d;fill-opacity:1" />
<polygon
   points="1.403,18.794 8,25.15 14.597,18.794 "
   id="polygon8"
   transform="translate(0,-4)"
   style="fill:#f57a4d;fill-opacity:1" />
</svg>